<svg width="17" height="17" viewBox="0 0 17 17" fill="none" xmlns="http://www.w3.org/2000/svg">
<path fill-rule="evenodd" clip-rule="evenodd" d="M8.5 1.46875C12.3831 1.46875 15.5312 4.61687 15.5312 8.5C15.5312 12.3831 12.3831 15.5312 8.5 15.5312C4.61687 15.5312 1.46875 12.3831 1.46875 8.5C1.46875 4.61687 4.61687 1.46875 8.5 1.46875Z" stroke="#F7B500" stroke-width="1.5" stroke-linecap="round" stroke-linejoin="round"/>
<path d="M3.52814 3.52832L13.4719 13.4721" stroke="#F7B500" stroke-width="1.5" stroke-linecap="round" stroke-linejoin="round"/>
</svg>
