<svg width="26" height="26" viewBox="0 0 26 26" fill="none" xmlns="http://www.w3.org/2000/svg">
<path fill-rule="evenodd" clip-rule="evenodd" d="M17.5514 7.07693L7.07693 17.5514C6.97436 17.654 6.97436 17.821 7.07693 17.9231C7.1795 18.0256 7.34598 18.0256 7.44855 17.9231L17.9231 7.44907C18.0256 7.34598 18.0256 7.1795 17.9231 7.07693C17.8205 6.97436 17.654 6.97436 17.5514 7.07693Z" fill="#3E5467"/>
<path fill-rule="evenodd" clip-rule="evenodd" d="M18.5514 8.07693L8.07693 18.5509C7.97436 18.654 7.97436 18.8205 8.07693 18.9231C8.1795 19.0256 8.34598 19.0256 8.44855 18.9231L18.9231 8.44855C19.0256 8.34547 19.0256 8.1795 18.9231 8.07693C18.8205 7.97436 18.654 7.97436 18.5514 8.07693Z" fill="#3E5467"/>
<path fill-rule="evenodd" clip-rule="evenodd" d="M23.4908 6.64932L22.5057 7.6344L18.3648 3.49376L19.3498 2.50869C20.3451 1.51338 21.9584 1.51338 22.9537 2.50869L23.4908 3.04534C24.486 4.04065 24.486 5.6545 23.4908 6.64932ZM21.8999 8.40013L9.0165 21.2831C8.90197 21.3982 8.71627 21.3982 8.60173 21.2831L4.71668 17.3984C4.60214 17.2838 4.60214 17.0981 4.71668 16.9831L17.6001 4.09963C17.7146 3.98459 17.9003 3.98459 18.0149 4.09963L21.8999 7.98436C22.0144 8.09939 22.0144 8.2851 21.8999 8.40013ZM7.94813 21.9295L4.62943 23.1188C4.58752 23.1334 4.54024 23.1231 4.50904 23.0915L2.92208 21.5049C2.89137 21.4742 2.88065 21.4294 2.89332 21.3884L3.96998 17.9565C3.99581 17.8736 4.10012 17.8483 4.16153 17.9097L7.99102 21.7389C8.05097 21.7988 8.02806 21.9007 7.94813 21.9295ZM3.58689 23.38L2.07985 23.9435C2.05597 23.9527 2.03306 23.9298 2.04086 23.9059L2.5614 22.3559C2.56871 22.335 2.59552 22.3282 2.6116 22.3442L3.59761 23.3303C3.61321 23.3459 3.60736 23.3722 3.58689 23.38ZM24.1176 2.87571L23.1242 1.88284C21.9472 0.70572 20.0385 0.70572 18.861 1.88284L3.68144 17.0626C3.67169 17.0728 3.65269 17.0899 3.65269 17.0899L1.02171 24.5108C0.918868 24.8013 1.19912 25.0811 1.48961 24.9783L8.87028 22.3598C8.87418 22.3584 8.92731 22.3286 8.93706 22.3184L24.1176 7.13771C25.2941 5.96108 25.2941 4.05283 24.1176 2.87571Z" fill="#3E5467"/>
<path d="M23.4908 6.64932L23.2257 6.3841L23.2256 6.38416L23.4908 6.64932ZM22.5057 7.6344L22.2406 7.89957L22.5058 8.16472L22.7709 7.89956L22.5057 7.6344ZM18.3648 3.49376L18.0996 3.2286L17.8345 3.49378L18.0996 3.75894L18.3648 3.49376ZM19.3498 2.50869L19.0847 2.24353L19.3498 2.50869ZM22.9537 2.50869L22.6885 2.77385L22.6886 2.77397L22.9537 2.50869ZM23.4908 3.04534L23.7559 2.78018L23.7558 2.78006L23.4908 3.04534ZM21.8999 8.40013L22.1651 8.6653L22.1656 8.66473L21.8999 8.40013ZM9.0165 21.2831L8.75134 21.018L8.75077 21.0185L9.0165 21.2831ZM8.60173 21.2831L8.86746 21.0185L8.86688 21.018L8.60173 21.2831ZM4.71668 17.3984L4.4515 17.6636L4.45152 17.6636L4.71668 17.3984ZM4.71668 16.9831L4.45151 16.7179L4.45094 16.7185L4.71668 16.9831ZM17.6001 4.09963L17.8652 4.36479L17.8658 4.36422L17.6001 4.09963ZM18.0149 4.09963L17.7491 4.36422L17.7497 4.3648L18.0149 4.09963ZM21.8999 7.98436L22.1656 7.71977L22.1651 7.71919L21.8999 7.98436ZM7.94813 21.9295L8.07464 22.2825L8.07508 22.2823L7.94813 21.9295ZM4.62943 23.1188L4.75296 23.4728L4.75594 23.4718L4.62943 23.1188ZM4.50904 23.0915L4.77627 22.8284L4.77417 22.8263L4.50904 23.0915ZM2.92208 21.5049L2.6569 21.7701L2.65694 21.7701L2.92208 21.5049ZM2.89332 21.3884L2.53551 21.2762L2.53509 21.2775L2.89332 21.3884ZM3.96998 17.9565L4.32779 18.0687L4.32799 18.0681L3.96998 17.9565ZM4.16153 17.9097L3.89636 18.1749L3.89638 18.1749L4.16153 17.9097ZM7.99102 21.7389L8.25619 21.4737L8.25617 21.4737L7.99102 21.7389ZM3.58689 23.38L3.71822 23.7313L3.72039 23.7304L3.58689 23.38ZM2.07985 23.9435L1.94851 23.5922L1.94427 23.5938L2.07985 23.9435ZM2.04086 23.9059L1.68536 23.7865L1.68438 23.7895L2.04086 23.9059ZM2.5614 22.3559L2.2073 22.2324L2.20591 22.2366L2.5614 22.3559ZM2.6116 22.3442L2.87677 22.0791L2.6116 22.3442ZM3.59761 23.3303L3.33244 23.5955L3.59761 23.3303ZM24.1176 2.87571L24.3828 2.61061L24.3827 2.61049L24.1176 2.87571ZM23.1242 1.88284L22.8591 2.148L22.8591 2.14806L23.1242 1.88284ZM18.861 1.88284L18.5959 1.61763L18.5958 1.61768L18.861 1.88284ZM3.68144 17.0626L3.4162 16.7973L3.40988 16.8039L3.68144 17.0626ZM3.65269 17.0899L3.40221 16.8108L3.33115 16.8746L3.29924 16.9645L3.65269 17.0899ZM1.02171 24.5108L0.668265 24.3855L0.668207 24.3857L1.02171 24.5108ZM1.48961 24.9783L1.61477 25.3318L1.61499 25.3317L1.48961 24.9783ZM8.87028 22.3598L8.99569 22.7133L9.00196 22.711L8.87028 22.3598ZM8.93706 22.3184L8.67181 22.0532L8.6655 22.0598L8.93706 22.3184ZM24.1176 7.13771L24.3827 7.40288L24.3827 7.40287L24.1176 7.13771ZM23.2256 6.38416L22.2406 7.36924L22.7709 7.89956L23.7559 6.91448L23.2256 6.38416ZM22.7709 7.36922L18.63 3.22859L18.0996 3.75894L22.2406 7.89957L22.7709 7.36922ZM18.63 3.75892L19.615 2.77385L19.0847 2.24353L18.0996 3.2286L18.63 3.75892ZM19.615 2.77385C20.4638 1.92499 21.8397 1.92499 22.6885 2.77385L23.2188 2.24353C22.0771 1.10176 20.2264 1.10176 19.0847 2.24353L19.615 2.77385ZM22.6886 2.77397L23.2257 3.31062L23.7558 2.78006L23.2187 2.24341L22.6886 2.77397ZM23.2256 3.3105C24.0745 4.1594 24.0744 5.53577 23.2257 6.3841L23.7559 6.91454C24.8977 5.77322 24.8976 3.9219 23.7559 2.78018L23.2256 3.3105ZM21.6347 8.13496L8.75134 21.018L9.28166 21.5483L22.1651 8.6653L21.6347 8.13496ZM8.75077 21.0185C8.78281 20.9864 8.83542 20.9864 8.86746 21.0185L8.33599 21.5477C8.59711 21.81 9.02112 21.81 9.28224 21.5477L8.75077 21.0185ZM8.86688 21.018L4.98183 17.1332L4.45152 17.6636L8.33657 21.5483L8.86688 21.018ZM4.98185 17.1332C5.01406 17.1654 5.01325 17.2167 4.98241 17.2477L4.45094 16.7185C4.19103 16.9796 4.19022 17.4023 4.4515 17.6636L4.98185 17.1332ZM4.98184 17.2483L17.8652 4.36479L17.3349 3.83446L4.45151 16.7179L4.98184 17.2483ZM17.8658 4.36422C17.8338 4.3964 17.7812 4.3964 17.7491 4.36422L18.2806 3.83503C18.0195 3.57279 17.5955 3.57279 17.3343 3.83503L17.8658 4.36422ZM17.7497 4.3648L21.6347 8.24954L22.1651 7.71919L18.28 3.83445L17.7497 4.3648ZM21.6342 8.24896C21.603 8.21767 21.603 8.16682 21.6342 8.13554L22.1656 8.66473C22.4259 8.40338 22.4259 7.98111 22.1656 7.71977L21.6342 8.24896ZM7.82162 21.5764L4.50292 22.7657L4.75594 23.4718L8.07464 22.2825L7.82162 21.5764ZM4.50591 22.7647C4.59607 22.7332 4.70222 22.7532 4.77626 22.8284L4.24183 23.3546C4.37825 23.4931 4.57896 23.5335 4.75295 23.4728L4.50591 22.7647ZM4.77417 22.8263L3.18721 21.2397L2.65694 21.7701L4.24391 23.3567L4.77417 22.8263ZM3.18725 21.2397C3.25599 21.3085 3.27956 21.4088 3.25155 21.4993L2.53509 21.2775C2.48173 21.4499 2.52674 21.6399 2.6569 21.7701L3.18725 21.2397ZM3.25112 21.5007L4.32779 18.0687L3.61218 17.8442L2.53551 21.2762L3.25112 21.5007ZM4.32799 18.0681C4.2692 18.2567 4.03268 18.3112 3.89636 18.1749L4.4267 17.6445C4.16756 17.3854 3.72243 17.4906 3.61198 17.8449L4.32799 18.0681ZM3.89638 18.1749L7.72586 22.004L8.25617 21.4737L4.42668 17.6445L3.89638 18.1749ZM7.72585 22.004C7.59057 21.8687 7.64355 21.6405 7.82118 21.5766L8.07508 22.2823C8.41257 22.1609 8.51136 21.7289 8.25619 21.4737L7.72585 22.004ZM3.45556 23.0288L1.94852 23.5922L2.21118 24.2947L3.71821 23.7313L3.45556 23.0288ZM1.94427 23.5938C2.23183 23.4823 2.48218 23.7625 2.39734 24.0223L1.68438 23.7895C1.58394 24.0972 1.8801 24.4231 2.21543 24.2931L1.94427 23.5938ZM2.39635 24.0253L2.91689 22.4753L2.20591 22.2366L1.68537 23.7866L2.39635 24.0253ZM2.91548 22.4795C2.83519 22.7096 2.53325 22.7962 2.34643 22.6094L2.87677 22.0791C2.65778 21.8601 2.30223 21.9603 2.20732 22.2324L2.91548 22.4795ZM2.34643 22.6094L3.33244 23.5955L3.86278 23.0651L2.87677 22.0791L2.34643 22.6094ZM3.33244 23.5955C3.15328 23.4163 3.22311 23.1173 3.45338 23.0296L3.72039 23.7304C3.9916 23.6271 4.07314 23.2755 3.86278 23.0651L3.33244 23.5955ZM24.3827 2.61049L23.3894 1.61762L22.8591 2.14806L23.8525 3.14094L24.3827 2.61049ZM23.3894 1.61768C22.0659 0.294076 19.9198 0.294155 18.5959 1.61763L19.1261 2.14805C20.1572 1.11729 21.8285 1.11736 22.8591 2.148L23.3894 1.61768ZM18.5958 1.61768L3.41628 16.7974L3.94661 17.3277L19.1261 2.148L18.5958 1.61768ZM3.40988 16.8039C3.41366 16.8 3.4139 16.8 3.40823 16.8053C3.40641 16.8069 3.40472 16.8085 3.40349 16.8096C3.40289 16.8102 3.40245 16.8106 3.40221 16.8108C3.4021 16.8109 3.40203 16.8109 3.40203 16.8109C3.40203 16.8109 3.40204 16.8109 3.40207 16.8109C3.40208 16.8109 3.4021 16.8109 3.40213 16.8109C3.40214 16.8108 3.40215 16.8108 3.40216 16.8108C3.40217 16.8108 3.40218 16.8108 3.40218 16.8108C3.40219 16.8108 3.40219 16.8108 3.4022 16.8108C3.4022 16.8108 3.40221 16.8108 3.65269 17.0899C3.90316 17.3689 3.90317 17.3689 3.90318 17.3689C3.90318 17.3689 3.90318 17.3689 3.90319 17.3689C3.9032 17.3689 3.9032 17.3689 3.90321 17.3689C3.90323 17.3689 3.90325 17.3689 3.90327 17.3688C3.90331 17.3688 3.90336 17.3688 3.90341 17.3687C3.90351 17.3686 3.90363 17.3685 3.90377 17.3684C3.90405 17.3681 3.90441 17.3678 3.90483 17.3674C3.90567 17.3667 3.90679 17.3657 3.90813 17.3645C3.91077 17.362 3.91443 17.3587 3.91859 17.3548C3.92486 17.349 3.93948 17.3354 3.953 17.3212L3.40988 16.8039ZM3.29924 16.9645L0.668265 24.3855L1.37515 24.6361L4.00613 17.2152L3.29924 16.9645ZM0.668207 24.3857C0.459857 24.9742 1.02759 25.5396 1.61477 25.3318L1.36446 24.6248C1.36258 24.6254 1.36277 24.6251 1.36462 24.625C1.36638 24.6249 1.36831 24.6251 1.37006 24.6256C1.37323 24.6264 1.37379 24.6273 1.37316 24.6267C1.37253 24.6261 1.37358 24.6267 1.37441 24.63C1.37486 24.6318 1.37507 24.6338 1.37498 24.6357C1.37489 24.6376 1.37456 24.6378 1.37521 24.636L0.668207 24.3857ZM1.61499 25.3317L8.99567 22.7133L8.7449 22.0064L1.36423 24.6248L1.61499 25.3317ZM9.00196 22.711C9.01519 22.706 9.02529 22.7013 9.02813 22.7C9.03252 22.698 9.0361 22.6962 9.03828 22.6952C9.0427 22.693 9.04645 22.691 9.04881 22.6898C9.05378 22.6871 9.05871 22.6844 9.06297 22.6821C9.07169 22.6772 9.08215 22.6713 9.09288 22.6649C9.10311 22.6588 9.11662 22.6506 9.13022 22.6416C9.13206 22.6404 9.17258 22.6149 9.20862 22.577L8.6655 22.0598C8.6775 22.0472 8.68774 22.0383 8.69301 22.0339C8.69891 22.0289 8.70368 22.0252 8.7065 22.0231C8.71198 22.019 8.71559 22.0166 8.7159 22.0164C8.71668 22.0159 8.71484 22.0171 8.71008 22.0199C8.70582 22.0225 8.70165 22.0248 8.69902 22.0263C8.6976 22.0271 8.69765 22.027 8.69894 22.0264C8.69945 22.0261 8.70165 22.0249 8.70486 22.0233C8.70643 22.0226 8.70949 22.0211 8.71345 22.0192C8.71586 22.0181 8.72562 22.0136 8.73861 22.0087L9.00196 22.711ZM9.20222 22.5836L24.3827 7.40288L23.8524 6.87255L8.67189 22.0532L9.20222 22.5836ZM24.3827 7.40287C25.7058 6.07977 25.7057 3.93413 24.3828 2.61061L23.8523 3.14082C24.8826 4.17154 24.8825 5.8424 23.8524 6.87256L24.3827 7.40287Z" fill="#3E5467"/>
</svg>
